valentin.vasiliu@epfl.ch, "The Shawshank Redemption", 01/02/02, 4
cristina.basescu@epfl.ch, "Rear Window", 01/02/02, 5
melchior.thambipillai@epfl.ch, "Double Indemnity", 01/02/03, 2
perseas.charoud-got@epfl.ch, "Once Upon a Time in the West", 01/04/11, 5
benjamin.schloesing@epfl.ch, "Vertigo", 01/05/00, 1
sourabh.lal@epfl.ch, "Dr. Strangelove or: How I Learned to Stop Worrying and Love the Bomb", 01/05/02, 1
robin.solignac@epfl.ch, "Paths of Glory", 01/05/06, 4
yannick.schaeffer@epfl.ch, "Star Wars: Episode IV - A New Hope", 01/05/15, 1
dimitrios.sarigiannis@epfl.ch, "Paths of Glory", 01/05/15, 5
hector.parmantier@epfl.ch, "Seven Samurai", 01/06/00, 4
arthur.villard@epfl.ch, "M", 01/06/10, 3
mattia.martinelli@epfl.ch, "One Flew Over the Cuckoo's Nest", 01/06/11, 3
mathieu.clavel@epfl.ch, "Goodfellas", 01/07/08, 5
simon.narduzzi@epfl.ch, "The Wages of Fear", 01/08/04, 5
nils.bonfils@epfl.ch, "Citizen Kane", 01/10/16, 1
adam.ztot@epfl.ch, "Singin' in the Rain", 01/11/00, 5
philippe.oechslin@epfl.ch, "Sunrise", 01/12/03, 1
damien.doy@epfl.ch, "Dr. Strangelove or: How I Learned to Stop Worrying and Love the Bomb", 01/12/08, 1
justinien.bouron@epfl.ch, "Citizen Kane", 01/12/10, 1
ines.bahej@epfl.ch, "The Wages of Fear", 01/12/14, 1
radu.cotofrei@epfl.ch, "Goodfellas", 02/01/09, 4
radu.cotofrei@epfl.ch, "Modern Times", 02/02/05, 4
georgia.fragkouli@epfl.ch, "M", 02/02/14, 3
pablo.lorenceau@epfl.ch, "Double Indemnity", 02/03/04, 5
yamane.elzein@epfl.ch, "The Shawshank Redemption", 02/03/06, 2
yann.dupontcostedoat@epfl.ch, "Raging Bull", 02/03/09, 1
vikalp.kamdar@epfl.ch, "The Wages of Fear", 02/04/12, 4
araz.yaqubov@epfl.ch, "Lawrence of Arabia", 02/04/16, 1
valerian.follonier@epfl.ch, "Ikiru", 02/05/03, 5
jean.raisaro@epfl.ch, "2001: A Space Odyssey", 02/05/10, 1
simon.narduzzi@epfl.ch, "Star Wars: Episode V - The Empire Strikes Back", 02/06/04, 3
benoit.cretegny@epfl.ch, "Casablanca", 02/08/03, 3
gaylor.bosson@epfl.ch, "Paths of Glory", 02/08/06, 2
alexis.cartier@epfl.ch, "Sunset Blvd.", 02/08/12, 4
gaylor.bosson@epfl.ch, "The Night of the Hunter", 02/09/05, 4
jacqueline.eriksson@epfl.ch, "Paths of Glory", 02/10/02, 1
alain.milliet@epfl.ch, "It's a Wonderful Life", 02/10/08, 5
hadrien.milano@epfl.ch, "The Shawshank Redemption", 02/11/00, 4
Fengda.Sun@unil.ch, "All About Eve", 02/11/09, 1
seth.vanderwilt@epfl.ch, "Modern Times", 02/11/10, 5
ireneu.pla@epfl.ch, "Once Upon a Time in the West", 02/11/13, 2
charles.gallay@epfl.ch, "Lawrence of Arabia", 02/11/13, 2
arnaud.dupeyrat@epfl.ch, "2001: A Space Odyssey", 03/01/02, 3
ambroise.grau@epfl.ch, "Rear Window", 03/01/04, 4
ilyes.jarrar@epfl.ch, "Citizen Kane", 03/02/00, 5
yann.dupontcostedoat@epfl.ch, "The Godfather", 03/02/00, 4
besma.elketroussi@epfl.ch, "Sunset Blvd.", 03/04/14, 4
charles.gallay@epfl.ch, "12 Angry Men", 03/07/00, 2
hadrien.milano@epfl.ch, "All About Eve", 03/08/14, 2
tasho.kjosev@epfl.ch, "Raiders of the Lost Ark", 03/09/04, 1
simone.colombo@epfl.ch, "Raging Bull", 03/10/10, 1
dimitrios.sarigiannis@epfl.ch, "Goodfellas", 03/10/13, 5
raphael.dunant@epfl.ch, "Apocalypse Now", 03/10/14, 1
florian.poma@epfl.ch, "Vertigo", 03/11/10, 3
marco.zoveralli@epfl.ch, "Star Wars: Episode V - The Empire Strikes Back", 03/11/16, 4
ireneu.pla@epfl.ch, "Casablanca", 03/12/01, 4
hector.parmantier@epfl.ch, "Double Indemnity", 03/12/15, 2
boris.flueckigersaltarin@epfl.ch, "The Godfather: Part II", 04/01/01, 5
yoann.ponti@epfl.ch, "Lawrence of Arabia", 04/01/10, 2
ozrenko.dragic@epfl.ch, "Seven Samurai", 04/02/05, 2
vincent.loup@epfl.ch, "Bicycle Thieves", 04/02/11, 3
dario.pavllo@epfl.ch, "Ikiru", 04/02/15, 4
josselin.vallee@epfl.ch, "Bicycle Thieves", 04/03/00, 2
ludovic.barman@epfl.ch, "The Third Man", 04/03/05, 5
pierre-antoine.desplaces@epfl.ch, "Taxi Driver", 04/03/06, 4
marius.rosset@epfl.ch, "The Good, the Bad and the Ugly", 04/03/09, 2
ciprian.tomoiaga@epfl.ch, "Ikiru", 04/04/06, 1
christophe.tafani-dereeper@epfl.ch, "The Good, the Bad and the Ugly", 04/04/11, 1
seth.vanderwilt@epfl.ch, "Tokyo Story", 04/04/12, 5
marius.rosset@epfl.ch, "Fanny and Alexander", 04/05/01, 1
christian.tresch@epfl.ch, "Tokyo Story", 04/06/02, 1
pablo.lorenceau@epfl.ch, "Goodfellas", 04/07/00, 4
linus.gasser@epfl.ch, "Seven Samurai", 04/07/03, 3
arthur.villard@epfl.ch, "The Good, the Bad and the Ugly", 04/07/05, 4
andre.baptistaaguas@epfl.ch, "Citizen Kane", 04/07/05, 5
sina.fakheri@epfl.ch, "Ikiru", 04/07/12, 3
pierre-antoine.desplaces@epfl.ch, "Metropolis", 04/08/02, 4
vikalp.kamdar@epfl.ch, "The Good, the Bad and the Ugly", 04/08/06, 1
malik.bougacha@epfl.ch, "All About Eve", 04/09/03, 1
tobias.bordenca@epfl.ch, "Star Wars: Episode IV - A New Hope", 04/09/11, 4
ahmad.ajalloeian@epfl.ch, "Spirited Away", 04/09/16, 5
sami.perrin@epfl.ch, "It's a Wonderful Life", 04/10/02, 2
adam.ztot@epfl.ch, "Vertigo", 04/10/04, 2
pawel.guzewicz@epfl.ch, "Seven Samurai", 04/10/12, 3
ludovic.barman@epfl.ch, "Lawrence of Arabia", 04/11/04, 1
nicolas.pradignac@epfl.ch, "North by Northwest", 04/11/14, 5
pawel.guzewicz@epfl.ch, "Dr. Strangelove or: How I Learned to Stop Worrying and Love the Bomb", 04/12/11, 3
laurence.dure@epfl.ch, "Chinatown", 05/01/12, 5
alfonso.peterssen@epfl.ch, "Rear Window", 05/03/01, 4
araz.yaqubov@epfl.ch, "Schindler's List", 05/03/01, 5
mohammad.yaghini@epfl.ch, "On the Waterfront", 05/03/06, 5
yoann.ponti@epfl.ch, "The Godfather: Part II", 05/03/08, 5
florian.poma@epfl.ch, "The Good, the Bad and the Ugly", 05/03/09, 2
daniel.guggenheim@epfl.ch, "The Dark Knight", 05/03/15, 2
ahmad.ajalloeian@epfl.ch, "One Flew Over the Cuckoo's Nest", 05/04/12, 2
artem.shevchenko@epfl.ch, "City Lights", 05/05/09, 4
anh.khau@epfl.ch, "Bicycle Thieves", 05/05/13, 2
robin.solignac@epfl.ch, "One Flew Over the Cuckoo's Nest", 05/06/01, 4
melchior.thambipillai@epfl.ch, "Modern Times", 05/06/08, 5
christian.tresch@epfl.ch, "Sunrise", 05/06/11, 5
sandra.djambazovska@epfl.ch, "The Wages of Fear", 05/06/13, 4
radoslaw.dryzner@epfl.ch, "Rashomon", 05/07/04, 5
riyadh.alnasser@epfl.ch, "Spirited Away", 05/07/04, 1
marie-jeanne.lagarde@epfl.ch, "The Godfather", 05/08/01, 5
niccolo.sacchi@epfl.ch, "The Good, the Bad and the Ugly", 05/08/08, 3
jun.chen@epfl.ch, "Modern Times", 05/08/11, 3
mattia.martinelli@epfl.ch, "Citizen Kane", 05/09/03, 3
vincent.ballet@epfl.ch, "Singin' in the Rain", 05/09/05, 1
nicolas.reich@epfl.ch, "M", 05/09/11, 3
vincent.petri@epfl.ch, "It's a Wonderful Life", 05/10/07, 4
jeremie.mayor@epfl.ch, "Metropolis", 05/11/00, 4
andreas.yazdani@epfl.ch, "Metropolis", 05/11/03, 2
kristian.aurlien@epfl.ch, "Schindler's List", 05/11/06, 4
linus.gasser@epfl.ch, "Vertigo", 05/12/15, 3
mateusz.paluchowski@epfl.ch, "Psycho", 06/01/04, 4
sylvain.beaud@epfl.ch, "The Godfather", 06/01/13, 5
yannick.schaeffer@epfl.ch, "The Wages of Fear", 06/02/09, 2
vincent.loup@epfl.ch, "Apocalypse Now", 06/03/12, 5
adam.ztot@epfl.ch, "Chinatown", 06/04/12, 1
nicolas.plancherel@epfl.ch, "Chinatown", 06/04/16, 3
boris.flueckigersaltarin@epfl.ch, "It's a Wonderful Life", 06/05/08, 4
marco.zoveralli@epfl.ch, "The Shawshank Redemption", 06/06/12, 4
simon.narduzzi@epfl.ch, "Once Upon a Time in the West", 06/07/03, 2
lkham.nyambuu@epfl.ch, "Rear Window", 06/07/11, 5
yamane.elzein@epfl.ch, "Dr. Strangelove or: How I Learned to Stop Worrying and Love the Bomb", 06/07/11, 3
justinien.bouron@epfl.ch, "Spirited Away", 06/07/12, 5
alfonso.peterssen@epfl.ch, "The Night of the Hunter", 06/08/03, 1
ciprian.tomoiaga@epfl.ch, "Casablanca", 06/08/04, 4
bojan.petrovski@epfl.ch, "Lawrence of Arabia", 06/08/05, 4
anouk.allenspach@epfl.ch, "Casablanca", 06/08/12, 2
sourabh.lal@epfl.ch, "Schindler's List", 06/08/14, 1
anouk.allenspach@epfl.ch, "Rashomon", 06/09/01, 3
yamane.elzein@epfl.ch, "Metropolis", 06/09/06, 2
lucas.pires@epfl.ch, "The Shawshank Redemption", 06/09/08, 1
nicolas.pradignac@epfl.ch, "The Good, the Bad and the Ugly", 06/09/10, 4
mohammad.yaghini@epfl.ch, "North by Northwest", 06/09/14, 3
nikita.lazarev@epfl.ch, "On the Waterfront", 06/09/15, 5
tasho.kjosev@epfl.ch, "Metropolis", 06/10/03, 4
romain.choukroun@epfl.ch, "Pulp Fiction", 06/10/12, 2
nicolas.plancherel@epfl.ch, "Schindler's List", 06/10/16, 3
raphael.dunant@epfl.ch, "The Third Man", 06/10/16, 4
marta.kuziora@epfl.ch, "Seven Samurai", 06/11/01, 5
alexis.cartier@epfl.ch, "Star Wars: Episode IV - A New Hope", 06/11/03, 2
lois.huguenin-dumittan@epfl.ch, "Rear Window", 06/11/13, 1
jean-thomas.furrer@epfl.ch, "It's a Wonderful Life", 06/12/14, 5
andreas.yazdani@epfl.ch, "It's a Wonderful Life", 07/01/10, 5
, "Pulp Fiction", 07/01/16, 1
tobias.bordenca@epfl.ch, "The Third Man", 07/02/15, 4
john.stephan@epfl.ch, "M", 07/02/15, 2
pierre-antoine.desplaces@epfl.ch, "One Flew Over the Cuckoo's Nest", 07/03/09, 5
philippe.oechslin@epfl.ch, "Bicycle Thieves", 07/04/14, 2
mathieu.clavel@epfl.ch, "Taxi Driver", 07/04/16, 1
sandra.djambazovska@epfl.ch, "Fanny and Alexander", 07/05/14, 3
aleksandr.mylnikov@epfl.ch, "Paths of Glory", 07/06/12, 5
nicolas.pradignac@epfl.ch, "Rear Window", 07/07/03, 2
florian.poma@epfl.ch, "Once Upon a Time in the West", 07/07/12, 1
leonardo.wirz@epfl.ch, "Metropolis", 07/07/13, 2
berkay.inan@epfl.ch, "Rear Window", 07/08/01, 2
nicolas.plancherel@epfl.ch, "Paths of Glory", 07/08/02, 1
philipp.chervet@epfl.ch, "Star Wars: Episode V - The Empire Strikes Back", 07/08/07, 4
olga.popovych@epfl.ch, "12 Angry Men", 07/08/14, 2
lkham.nyambuu@epfl.ch, "Rashomon", 07/09/09, 3
diego.iriartesainz@epfl.ch, "Taxi Driver", 07/09/14, 3
tobias.bordenca@epfl.ch, "Sunset Blvd.", 07/10/05, 3
aleksandr.mylnikov@epfl.ch, "Star Wars: Episode V - The Empire Strikes Back", 07/10/06, 3
robert.marver@epfl.ch, "Star Wars: Episode V - The Empire Strikes Back", 07/10/07, 1
araz.yaqubov@epfl.ch, "The Dark Knight", 07/10/13, 5
john.stephan@epfl.ch, "Sunset Blvd.", 07/12/01, 4
seth.vanderwilt@epfl.ch, "It's a Wonderful Life", 07/12/06, 5
riccardo.succa@epfl.ch, "Star Wars: Episode IV - A New Hope", 07/12/07, 3
laurence.dure@epfl.ch, "All About Eve", 08/01/01, 3
riyadh.alnasser@epfl.ch, "Raiders of the Lost Ark", 08/01/01, 2
sourabh.lal@epfl.ch, "Once Upon a Time in the West", 08/01/07, 3
hadrien.milano@epfl.ch, "The Good, the Bad and the Ugly", 08/02/04, 1
emanuele.bugliarello@epfl.ch, "The Wages of Fear", 08/02/05, 3
sandra.djambazovska@epfl.ch, "On the Waterfront", 08/03/01, 2
perseas.charoud-got@epfl.ch, "Chinatown", 08/03/03, 2
mathieu.clavel@epfl.ch, "City Lights", 08/03/07, 3
daniel.guggenheim@epfl.ch, "12 Angry Men", 08/03/13, 4
sylvain.beaud@epfl.ch, "Apocalypse Now", 08/03/13, 1
ines.bahej@epfl.ch, "Dr. Strangelove or: How I Learned to Stop Worrying and Love the Bomb", 08/03/15, 5
lois.huguenin-dumittan@epfl.ch, "2001: A Space Odyssey", 08/04/10, 4
ireneu.pla@epfl.ch, "Paths of Glory", 08/04/11, 5
lukas.pestalozzirossi@epfl.ch, "Spirited Away", 08/04/13, 3
firas.benothman@epfl.ch, "Fanny and Alexander", 08/05/04, 5
daniel.guggenheim@epfl.ch, "Ikiru", 08/06/04, 3
robin.genolet@epfl.ch, "Schindler's List", 08/06/09, 1
benjamin.schloesing@epfl.ch, "Ikiru", 08/07/05, 2
cristina.menghini@epfl.ch, "Double Indemnity", 08/07/10, 3
timothee.lottaz@epfl.ch, "Fanny and Alexander", 08/09/05, 5
hugues.saltini@epfl.ch, "Metropolis", 08/09/05, 1
georgia.fragkouli@epfl.ch, "12 Angry Men", 08/09/13, 3
adrian.pace@epfl.ch, "Raiders of the Lost Ark", 08/09/14, 4
benoit.favreau@epfl.ch, "Citizen Kane", 08/10/00, 4
brandon.lesann@epfl.ch, "Bicycle Thieves", 08/10/01, 1
tobias.bordenca@epfl.ch, "Casablanca", 08/10/13, 5
arthur.villard@epfl.ch, "Paths of Glory", 08/10/13, 3
romain.choukroun@epfl.ch, "The Shawshank Redemption", 08/12/03, 4
christopher.benz@epfl.ch, "Spirited Away", 08/12/09, 2
malik.bougacha@epfl.ch, "The Godfather: Part II", 08/12/16, 5
martin.weber@epfl.ch, "Casablanca", 09/01/06, 3
mateusz.paluchowski@epfl.ch, "Fanny and Alexander", 09/01/11, 3
christian.tresch@epfl.ch, "Paths of Glory", 09/02/00, 3
bojan.petrovski@epfl.ch, "Raging Bull", 09/03/02, 1
emily.hentgen@epfl.ch, "Double Indemnity", 09/03/12, 1
berkay.inan@epfl.ch, "Star Wars: Episode V - The Empire Strikes Back", 09/04/02, 4
brandon.lesann@epfl.ch, "Taxi Driver", 09/04/03, 3
xavier.willemin@epfl.ch, "2001: A Space Odyssey", 09/04/16, 2
christopher.benz@epfl.ch, "12 Angry Men", 09/05/04, 2
benoit.favreau@epfl.ch, "The Dark Knight", 09/05/09, 3
adam.ztot@epfl.ch, "Lawrence of Arabia", 09/05/16, 4
christian.tresch@epfl.ch, "The 400 Blows", 09/06/03, 1
handan.kilinc@epfl.ch, "Metropolis", 09/06/08, 1
mohammad.yaghini@epfl.ch, "Modern Times", 09/06/14, 1
jacqueline.eriksson@epfl.ch, "North by Northwest", 09/08/16, 3
riyadh.alnasser@epfl.ch, "One Flew Over the Cuckoo's Nest", 09/09/06, 3
mustafa.ozdayi@epfl.ch, "Vertigo", 09/09/10, 4
anh.khau@epfl.ch, "Pulp Fiction", 09/10/02, 4
florian.poma@epfl.ch, "Sunset Blvd.", 09/11/05, 5
fahd.zargelaioun@epfl.ch, "Seven Samurai", 09/11/06, 2
tobias.bordenca@epfl.ch, "Chinatown", 09/12/06, 5
nicolas.gailly@epfl.ch, "Star Wars: Episode V - The Empire Strikes Back", 09/12/09, 2
mirko.boelsterli@epfl.ch, "Raging Bull", 10/01/02, 4
alexandre.connat@epfl.ch, "Casablanca", 10/02/11, 2
kirtan.padh@epfl.ch, "Metropolis", 10/02/14, 3
manuroop.kondepudi@epfl.ch, "The Third Man", 10/03/06, 1
cristina.menghini@epfl.ch, "Raiders of the Lost Ark", 10/03/13, 5
radoslaw.dryzner@epfl.ch, "Metropolis", 10/04/01, 1
lukas.pestalozzirossi@epfl.ch, "One Flew Over the Cuckoo's Nest", 10/04/02, 5
mirko.boelsterli@epfl.ch, "2001: A Space Odyssey", 10/04/03, 1
philippe.oechslin@epfl.ch, "12 Angry Men", 10/04/09, 2
vincent.petri@epfl.ch, "On the Waterfront", 10/04/15, 2
alain.milliet@epfl.ch, "Lawrence of Arabia", 10/05/00, 3
vikalp.kamdar@epfl.ch, "It's a Wonderful Life", 10/05/00, 3
andreas.yazdani@epfl.ch, "Ikiru", 10/05/06, 4
jean-thomas.furrer@epfl.ch, "The Dark Knight", 10/06/05, 3
brandon.lesann@epfl.ch, "Raging Bull", 10/06/10, 3
robin.solignac@epfl.ch, "Bicycle Thieves", 10/06/14, 1
Fengda.Sun@unil.ch, "Star Wars: Episode V - The Empire Strikes Back", 10/06/14, 4
kristian.aurlien@epfl.ch, "Apocalypse Now", 10/07/00, 1
fahd.zargelaioun@epfl.ch, "It's a Wonderful Life", 10/07/09, 4
aleksandr.mylnikov@epfl.ch, "The Wages of Fear", 10/08/00, 4
radoslaw.dryzner@epfl.ch, "Casablanca", 10/08/01, 4
jun.chen@epfl.ch, "The Godfather: Part II", 10/09/01, 2
valerian.follonier@epfl.ch, "One Flew Over the Cuckoo's Nest", 10/09/11, 1
kirtan.padh@epfl.ch, "Tokyo Story", 10/09/13, 4
fahd.zargelaioun@epfl.ch, "The Wages of Fear", 10/10/00, 1
valentin.vasiliu@epfl.ch, "On the Waterfront", 10/10/06, 3
aleksandr.mylnikov@epfl.ch, "Citizen Kane", 10/10/13, 5
aimee.montero@epfl.ch, "Metropolis", 10/11/02, 4
ahmad.ajalloeian@epfl.ch, "Double Indemnity", 10/11/02, 3
jean.raisaro@epfl.ch, "Sunset Blvd.", 10/11/07, 4
emily.hentgen@epfl.ch, "Sunrise", 10/11/11, 2
yannick.schaeffer@epfl.ch, "Raging Bull", 10/12/05, 3
radu.cotofrei@epfl.ch, "Citizen Kane", 10/12/10, 2
sina.fakheri@epfl.ch, "Lawrence of Arabia", 10/12/14, 2
dalmir.hasic@epfl.ch, "Rashomon", 10/12/15, 4
bojan.petrovski@epfl.ch, "One Flew Over the Cuckoo's Nest", 11/01/00, 1
alexis.cartier@epfl.ch, "One Flew Over the Cuckoo's Nest", 11/01/06, 2
philipp.chervet@epfl.ch, "The Wages of Fear", 11/01/07, 4
melchior.thambipillai@epfl.ch, "Dr. Strangelove or: How I Learned to Stop Worrying and Love the Bomb", 11/01/08, 1
rodrigo.pena@epfl.ch, "It's a Wonderful Life", 11/02/06, 3
artem.shevchenko@epfl.ch, "Goodfellas", 11/02/09, 5
yange.fang@epfl.ch, "Sunset Blvd.", 11/03/07, 3
basile.bruneau@epfl.ch, "Rear Window", 11/03/12, 1
fahd.zargelaioun@epfl.ch, "12 Angry Men", 11/04/01, 5
yann.dupontcostedoat@epfl.ch, "One Flew Over the Cuckoo's Nest", 11/04/12, 2
robin.genolet@epfl.ch, "Raiders of the Lost Ark", 11/05/02, 5
adrian.pace@epfl.ch, "Star Wars: Episode IV - A New Hope", 11/05/10, 5
teo.stocco@epfl.ch, "City Lights", 11/05/13, 2
maxime.coriou@epfl.ch, "The Third Man", 11/05/16, 3
matthieu.devaux@epfl.ch, "The Dark Knight", 11/06/00, 3
brandon.lesann@epfl.ch, "Seven Samurai", 11/06/11, 5
melchior.thambipillai@epfl.ch, "It's a Wonderful Life", 11/07/05, 5
remy.sun@epfl.ch, "City Lights", 11/08/11, 5
handan.kilinc@epfl.ch, "One Flew Over the Cuckoo's Nest", 11/08/16, 5
tasho.kjosev@epfl.ch, "The Dark Knight", 11/09/04, 3
weiyu.zhang@epfl.ch, "Lawrence of Arabia", 11/09/10, 4
marco.zoveralli@epfl.ch, "Taxi Driver", 11/12/13, 4
radoslaw.dryzner@epfl.ch, "Sunset Blvd.", 12/01/04, 3
robin.genolet@epfl.ch, "2001: A Space Odyssey", 12/01/06, 4
pierre-antoine.desplaces@epfl.ch, "The Godfather", 12/01/07, 4
raphael.steinmann@epfl.ch, "It's a Wonderful Life", 12/01/10, 5
cristina.menghini@epfl.ch, "Paths of Glory", 12/01/16, 3
berkay.inan@epfl.ch, "Raging Bull", 12/02/01, 1
besma.elketroussi@epfl.ch, "Spirited Away", 12/03/00, 5
patrik.fraj-sladoljev@epfl.ch, "Tokyo Story", 12/04/15, 5
christophe.tafani-dereeper@epfl.ch, "Rear Window", 12/05/05, 1
yange.fang@epfl.ch, "M", 12/05/09, 1
francisco.girbaleiras@epfl.ch, "Dr. Strangelove or: How I Learned to Stop Worrying and Love the Bomb", 12/05/14, 3
ines.bahej@epfl.ch, "Raiders of the Lost Ark", 12/06/13, 1
nicolas.roussel@epfl.ch, "The Good, the Bad and the Ugly", 12/07/02, 4
aimee.montero@epfl.ch, "Rashomon", 12/07/05, 3
romain.choukroun@epfl.ch, "Psycho", 12/07/12, 1
vincent.petri@epfl.ch, "Spirited Away", 12/09/01, 1
marta.kuziora@epfl.ch, "Lawrence of Arabia", 12/09/06, 4
cristina.basescu@epfl.ch, "Star Wars: Episode V - The Empire Strikes Back", 12/09/06, 1
robert.marver@epfl.ch, "Fanny and Alexander", 12/09/08, 4
marie-jeanne.lagarde@epfl.ch, "Singin' in the Rain", 12/09/11, 2
ciprian.tomoiaga@epfl.ch, "Sunrise", 12/09/14, 2
pablo.lorenceau@epfl.ch, "Paths of Glory", 12/10/07, 2
jacqueline.eriksson@epfl.ch, "Apocalypse Now", 12/11/05, 4
basile.bruneau@epfl.ch, "Rashomon", 12/12/06, 1
nils.bonfils@epfl.ch, "2001: A Space Odyssey", 13/01/11, 3
sina.fakheri@epfl.ch, "Schindler's List", 13/02/01, 4
alexandre.connat@epfl.ch, "All About Eve", 13/02/02, 4
laurence.dure@epfl.ch, "Modern Times", 13/02/09, 4
robin.solignac@epfl.ch, "Rear Window", 13/02/15, 4
vikalp.kamdar@epfl.ch, "Psycho", 13/04/08, 5
timothee.lottaz@epfl.ch, "Dr. Strangelove or: How I Learned to Stop Worrying and Love the Bomb", 13/05/02, 5
jun.chen@epfl.ch, "All About Eve", 13/05/04, 1
niccolo.sacchi@epfl.ch, "The Wages of Fear", 13/05/07, 5
maxime.coriou@epfl.ch, "Schindler's List", 13/05/08, 5
mustafa.ozdayi@epfl.ch, "Metropolis", 13/05/10, 1
alexandre.connat@epfl.ch, "Fanny and Alexander", 13/05/12, 3
adrian.pace@epfl.ch, "Schindler's List", 13/06/00, 4
mathieu.clavel@epfl.ch, "Tokyo Story", 13/06/13, 4
bojan.petrovski@epfl.ch, "The Night of the Hunter", 13/07/01, 3
josselin.vallee@epfl.ch, "North by Northwest", 13/07/07, 4
christophe.tafani-dereeper@epfl.ch, "Dr. Strangelove or: How I Learned to Stop Worrying and Love the Bomb", 13/07/09, 3
alain.milliet@epfl.ch, "Rear Window", 13/09/12, 5
firas.benothman@epfl.ch, "One Flew Over the Cuckoo's Nest", 13/10/05, 1
andre.baptistaaguas@epfl.ch, "12 Angry Men", 13/10/15, 3
nikita.lazarev@epfl.ch, "Ikiru", 13/11/15, 3
christopher.benz@epfl.ch, "Goodfellas", 13/11/16, 3
philippe.oechslin@epfl.ch, "The Good, the Bad and the Ugly", 13/12/08, 4
vincent.ballet@epfl.ch, "Ikiru", 14/01/00, 2
olga.popovych@epfl.ch, "One Flew Over the Cuckoo's Nest", 14/01/13, 2
nicolas.gailly@epfl.ch, "North by Northwest", 14/02/04, 2
benoit.cretegny@epfl.ch, "Star Wars: Episode IV - A New Hope", 14/02/05, 5
malik.bougacha@epfl.ch, "2001: A Space Odyssey", 14/02/06, 4
emanuele.bugliarello@epfl.ch, "Sunrise", 14/04/04, 1
michael.heiniger@epfl.ch, "Double Indemnity", 14/04/07, 3
jacqueline.eriksson@epfl.ch, "One Flew Over the Cuckoo's Nest", 14/04/12, 2
timothee.lottaz@epfl.ch, "One Flew Over the Cuckoo's Nest", 14/05/03, 5
maxime.rutag@epfl.ch, "The Dark Knight", 14/05/08, 1
manuroop.kondepudi@epfl.ch, "On the Waterfront", 14/05/10, 1
alain.milliet@epfl.ch, "12 Angry Men", 14/05/15, 5
michael.heiniger@epfl.ch, "12 Angry Men", 14/06/03, 5
arthur.villard@epfl.ch, "Pulp Fiction", 14/06/04, 3
jeremie.mayor@epfl.ch, "Seven Samurai", 14/07/01, 1
malik.bougacha@epfl.ch, "Tokyo Story", 14/07/05, 3
cindy.khawand@epfl.ch, "Sunrise", 14/07/05, 3
ambroise.grau@epfl.ch, "The Shawshank Redemption", 14/07/11, 2
malik.bougacha@epfl.ch, "Casablanca", 14/08/03, 4
patrik.fraj-sladoljev@epfl.ch, "The Godfather: Part II", 14/09/06, 3
noora.tanska@epfl.ch, "The Godfather", 14/11/00, 4
matthieu.devaux@epfl.ch, "The Godfather", 14/11/05, 5
cristina.menghini@epfl.ch, "Apocalypse Now", 14/11/07, 3
emily.hentgen@epfl.ch, "On the Waterfront", 14/11/08, 2
timothee.lottaz@epfl.ch, "Sunrise", 14/12/04, 4
raphael.dunant@epfl.ch, "Singin' in the Rain", 14/12/05, 1
mattia.martinelli@epfl.ch, "North by Northwest", 14/12/05, 4
robin.solignac@epfl.ch, "M", 14/12/09, 3
gaylor.bosson@epfl.ch, "Dr. Strangelove or: How I Learned to Stop Worrying and Love the Bomb", 14/12/12, 5
sandra.djambazovska@epfl.ch, "Citizen Kane", 15/01/05, 1
arnaud.dupeyrat@epfl.ch, "Psycho", 15/01/06, 2
clement.launay@epfl.ch, "Star Wars: Episode IV - A New Hope", 15/01/12, 5
benoit.favreau@epfl.ch, "Sunset Blvd.", 15/01/12, 2
anh.khau@epfl.ch, "12 Angry Men", 15/02/01, 1
ahmad.ajalloeian@epfl.ch, "The 400 Blows", 15/02/04, 5
clement.launay@epfl.ch, "Goodfellas", 15/02/04, 2
simone.colombo@epfl.ch, "All About Eve", 15/03/00, 5
firas.benothman@epfl.ch, "Star Wars: Episode V - The Empire Strikes Back", 15/03/06, 1
nicolas.gailly@epfl.ch, "Vertigo", 15/05/02, 5
alfonso.peterssen@epfl.ch, "Star Wars: Episode IV - A New Hope", 15/06/01, 2
dario.pavllo@epfl.ch, "The Godfather", 15/06/01, 5
nicolas.roussel@epfl.ch, "Vertigo", 15/06/08, 2
danny.rodriguesalves@epfl.ch, "Taxi Driver", 15/06/09, 2
besma.elketroussi@epfl.ch, "Dr. Strangelove or: How I Learned to Stop Worrying and Love the Bomb", 15/09/00, 2
nikita.lazarev@epfl.ch, "Pulp Fiction", 15/09/00, 4
ludovic.barman@epfl.ch, "The Dark Knight", 15/09/04, 1
ekaterina.volkovich@epfl.ch, "Star Wars: Episode V - The Empire Strikes Back", 15/10/04, 4
cindy.khawand@epfl.ch, "The Shawshank Redemption", 15/10/10, 5
cindy.khawand@epfl.ch, "Star Wars: Episode V - The Empire Strikes Back", 15/10/14, 3
vincent.petri@epfl.ch, "All About Eve", 15/11/00, 2
arnaud.dupeyrat@epfl.ch, "Apocalypse Now", 15/11/00, 1
lois.huguenin-dumittan@epfl.ch, "North by Northwest", 15/11/01, 4
perseas.charoud-got@epfl.ch, "The Dark Knight", 15/12/03, 2
hadrien.milano@epfl.ch, "The 400 Blows", 15/12/04, 3
christian.tresch@epfl.ch, "M", 15/12/10, 3
charles.gallay@epfl.ch, "City Lights", 15/12/12, 1
simone.colombo@epfl.ch, "Goodfellas", 16/02/01, 5
dario.pavllo@epfl.ch, "Raiders of the Lost Ark", 16/02/01, 2
emanuele.bugliarello@epfl.ch, "It's a Wonderful Life", 16/02/09, 5
michael.heiniger@epfl.ch, "2001: A Space Odyssey", 16/02/12, 2
marco.zoveralli@epfl.ch, "Spirited Away", 16/02/13, 3
mustafa.ozdayi@epfl.ch, "Lawrence of Arabia", 16/02/15, 2
ivanbenjamin.baeriswyl@epfl.ch, "Fanny and Alexander", 16/03/02, 4
sourabh.lal@epfl.ch, "The Godfather: Part II", 16/04/10, 3
maxime.rutag@epfl.ch, "Seven Samurai", 16/04/14, 1
teo.stocco@epfl.ch, "Tokyo Story", 16/05/16, 2
damien.doy@epfl.ch, "12 Angry Men", 16/06/12, 5
martin.weber@epfl.ch, "All About Eve", 16/07/00, 4
lkham.nyambuu@epfl.ch, "Metropolis", 16/07/05, 4
dimitrios.sarigiannis@epfl.ch, "Spirited Away", 16/07/14, 3
ivanbenjamin.baeriswyl@epfl.ch, "Vertigo", 16/08/13, 2
raphael.dunant@epfl.ch, "Rashomon", 16/09/06, 5
xavier.willemin@epfl.ch, "One Flew Over the Cuckoo's Nest", 16/09/13, 4
ambroise.grau@epfl.ch, "12 Angry Men", 16/09/15, 5
xavier.willemin@epfl.ch, "Rashomon", 16/10/01, 5
christopher.benz@epfl.ch, "Tokyo Story", 16/10/01, 4
pawel.guzewicz@epfl.ch, "Pulp Fiction", 16/10/07, 3
maxime.rutag@epfl.ch, "The Godfather", 16/10/11, 3
nikita.lazarev@epfl.ch, "Once Upon a Time in the West", 16/11/11, 3
arnaud.dupeyrat@epfl.ch, "Dr. Strangelove or: How I Learned to Stop Worrying and Love the Bomb", 16/12/15, 5
basile.bruneau@epfl.ch, "Metropolis", 17/01/10, 4
charles.gallay@epfl.ch, "North by Northwest", 17/01/16, 3
nicolas.pradignac@epfl.ch, "Fanny and Alexander", 17/02/16, 2
sylvain.beaud@epfl.ch, "M", 17/03/01, 4
yann.dupontcostedoat@epfl.ch, "Rear Window", 17/03/01, 5
benoit.cretegny@epfl.ch, "2001: A Space Odyssey", 17/03/03, 4
anouk.allenspach@epfl.ch, "Paths of Glory", 17/03/04, 1
sourabh.lal@epfl.ch, "Rear Window", 17/03/16, 5
, "Lawrence of Arabia", 17/03/16, 5
simone.colombo@epfl.ch, "Fanny and Alexander", 17/04/16, 4
artem.shevchenko@epfl.ch, "Fanny and Alexander", 17/05/02, 2
nicolas.reich@epfl.ch, "Casablanca", 17/05/06, 5
aleksandr.mylnikov@epfl.ch, "Rear Window", 17/05/14, 4
marie-jeanne.lagarde@epfl.ch, "Seven Samurai", 17/06/00, 2
aimee.montero@epfl.ch, "Citizen Kane", 17/06/01, 1
, "Seven Samurai", 17/06/02, 5
jean.raisaro@epfl.ch, "Psycho", 17/07/02, 1
teo.stocco@epfl.ch, "Sunrise", 17/07/11, 1
yamane.elzein@epfl.ch, "Sunrise", 17/07/16, 3
nicolas.pradignac@epfl.ch, "One Flew Over the Cuckoo's Nest", 17/08/06, 5
marie-jeanne.lagarde@epfl.ch, "M", 17/08/06, 4
hector.parmantier@epfl.ch, "Singin' in the Rain", 17/08/09, 2
boris.flueckigersaltarin@epfl.ch, "Dr. Strangelove or: How I Learned to Stop Worrying and Love the Bomb", 17/09/03, 5
alexandre.connat@epfl.ch, "Pulp Fiction", 17/09/03, 2
hugues.saltini@epfl.ch, "City Lights", 17/09/05, 4
hadrien.milano@epfl.ch, "Vertigo", 17/09/07, 1
matthias.leroy@epfl.ch, "Lawrence of Arabia", 17/09/08, 2
mustafa.ozdayi@epfl.ch, "Casablanca", 17/09/13, 5
Fengda.Sun@unil.ch, "Lawrence of Arabia", 17/10/04, 4
linus.gasser@epfl.ch, "On the Waterfront", 17/10/05, 4
kristian.aurlien@epfl.ch, "Sunrise", 17/11/02, 5
dalmir.hasic@epfl.ch, "North by Northwest", 17/11/09, 2
cristina.basescu@epfl.ch, "The Dark Knight", 17/11/15, 4
ilyes.jarrar@epfl.ch, "Apocalypse Now", 17/12/05, 4
rodrigo.pena@epfl.ch, "Schindler's List", 17/12/05, 3
cedric.cook@epfl.ch, "Dr. Strangelove or: How I Learned to Stop Worrying and Love the Bomb", 18/02/00, 3
ilyes.jarrar@epfl.ch, "12 Angry Men", 18/03/01, 5
weiyu.zhang@epfl.ch, "Casablanca", 18/03/04, 2
ahmad.ajalloeian@epfl.ch, "Star Wars: Episode IV - A New Hope", 18/03/08, 4
radoslaw.dryzner@epfl.ch, "Ikiru", 18/05/02, 1
gaylor.bosson@epfl.ch, "The 400 Blows", 18/05/06, 4
ekaterina.volkovich@epfl.ch, "Taxi Driver", 18/05/11, 4
ozrenko.dragic@epfl.ch, "12 Angry Men", 18/06/16, 4
florian.poma@epfl.ch, "Taxi Driver", 18/07/10, 2
dario.pavllo@epfl.ch, "Dr. Strangelove or: How I Learned to Stop Worrying and Love the Bomb", 18/08/06, 5
adam.ztot@epfl.ch, "2001: A Space Odyssey", 18/08/16, 4
mustafa.ozdayi@epfl.ch, "The Godfather: Part II", 18/09/03, 1
martin.weber@epfl.ch, "Star Wars: Episode V - The Empire Strikes Back", 18/09/07, 1
araz.yaqubov@epfl.ch, "2001: A Space Odyssey", 18/09/11, 3
leonardo.wirz@epfl.ch, "Star Wars: Episode V - The Empire Strikes Back", 18/09/12, 4
marta.kuziora@epfl.ch, "12 Angry Men", 18/10/08, 4
ludovic.barman@epfl.ch, "The Godfather", 18/10/11, 5
linus.gasser@epfl.ch, "The Godfather", 18/11/02, 1
georgia.fragkouli@epfl.ch, "Star Wars: Episode IV - A New Hope", 18/11/07, 4
arnaud.dupeyrat@epfl.ch, "Star Wars: Episode V - The Empire Strikes Back", 18/12/14, 3
araz.yaqubov@epfl.ch, "Star Wars: Episode IV - A New Hope", 19/01/05, 2
cedric.cook@epfl.ch, "Taxi Driver", 19/01/10, 3
ekaterina.volkovich@epfl.ch, "The 400 Blows", 19/02/13, 1
simon.narduzzi@epfl.ch, "The Good, the Bad and the Ugly", 19/04/12, 5
andre.baptistaaguas@epfl.ch, "Pulp Fiction", 19/06/06, 4
andreas.yazdani@epfl.ch, "Casablanca", 19/06/10, 4
francisco.girbaleiras@epfl.ch, "Double Indemnity", 19/06/16, 1
laurence.dure@epfl.ch, "Schindler's List", 19/07/02, 5
robert.marver@epfl.ch, "The Wages of Fear", 19/07/03, 3
melchior.thambipillai@epfl.ch, "Taxi Driver", 19/07/15, 4
robin.genolet@epfl.ch, "Singin' in the Rain", 19/08/03, 5
christopher.benz@epfl.ch, "Ikiru", 19/08/10, 3
remy.sun@epfl.ch, "Star Wars: Episode IV - A New Hope", 19/08/11, 3
maxime.rutag@epfl.ch, "North by Northwest", 19/09/09, 2
benoit.favreau@epfl.ch, "The 400 Blows", 19/10/08, 3
nicolas.gailly@epfl.ch, "City Lights", 19/10/09, 4
matthias.leroy@epfl.ch, "The Third Man", 19/11/06, 2
romain.choukroun@epfl.ch, "Rashomon", 19/11/07, 1
seth.vanderwilt@epfl.ch, "Vertigo", 19/12/03, 5
nicolas.gailly@epfl.ch, "Raiders of the Lost Ark", 19/12/11, 1
dalmir.hasic@epfl.ch, "Star Wars: Episode V - The Empire Strikes Back", 19/12/15, 3
josselin.vallee@epfl.ch, "Goodfellas", 20/01/03, 2
alfonso.peterssen@epfl.ch, "Chinatown", 20/01/07, 1
cedric.cook@epfl.ch, "2001: A Space Odyssey", 20/01/10, 3
marius.rosset@epfl.ch, "The Shawshank Redemption", 20/01/13, 5
john.stephan@epfl.ch, "The 400 Blows", 20/02/10, 2
alain.chevalley@epfl.ch, "Bicycle Thieves", 20/02/15, 2
marius.rosset@epfl.ch, "Ikiru", 20/03/02, 1
danny.rodriguesalves@epfl.ch, "Seven Samurai", 20/03/12, 3
damien.doy@epfl.ch, "Vertigo", 20/04/01, 5
marta.kuziora@epfl.ch, "It's a Wonderful Life", 20/04/04, 1
valentin.vasiliu@epfl.ch, "2001: A Space Odyssey", 20/04/16, 3
kristian.aurlien@epfl.ch, "12 Angry Men", 20/07/02, 5
cindy.khawand@epfl.ch, "Dr. Strangelove or: How I Learned to Stop Worrying and Love the Bomb", 20/07/03, 2
pablo.lorenceau@epfl.ch, "Rear Window", 20/07/08, 5
leonardo.wirz@epfl.ch, "City Lights", 20/07/09, 3
alexander.holloway@epfl.ch, "Rear Window", 20/07/12, 2
yann.dupontcostedoat@epfl.ch, "Ikiru", 20/08/08, 4
yannick.schaeffer@epfl.ch, "The Night of the Hunter", 20/08/12, 3
sami.perrin@epfl.ch, "Singin' in the Rain", 20/09/13, 5
emanuele.bugliarello@epfl.ch, "Dr. Strangelove or: How I Learned to Stop Worrying and Love the Bomb", 20/09/15, 5
basile.bruneau@epfl.ch, "On the Waterfront", 20/10/00, 2
ivanbenjamin.baeriswyl@epfl.ch, "Modern Times", 20/10/01, 3
francisco.girbaleiras@epfl.ch, "Modern Times", 20/10/07, 1
handan.kilinc@epfl.ch, "Bicycle Thieves", 20/11/07, 2
sina.fakheri@epfl.ch, "Singin' in the Rain", 20/11/11, 4
jean-thomas.furrer@epfl.ch, "Double Indemnity", 20/11/14, 5
lucas.pires@epfl.ch, "Double Indemnity", 20/12/11, 2
riccardo.succa@epfl.ch, "City Lights", 21/01/09, 3
ivanbenjamin.baeriswyl@epfl.ch, "Schindler's List", 21/02/00, 5
vincent.loup@epfl.ch, "It's a Wonderful Life", 21/02/03, 4
mateusz.paluchowski@epfl.ch, "12 Angry Men", 21/02/03, 1
emily.hentgen@epfl.ch, "All About Eve", 21/02/04, 3
simone.colombo@epfl.ch, "The Shawshank Redemption", 21/02/06, 2
yange.fang@epfl.ch, "Goodfellas", 21/02/06, 3
damien.doy@epfl.ch, "Raiders of the Lost Ark", 21/02/07, 3
diego.iriartesainz@epfl.ch, "Citizen Kane", 21/02/09, 1
ambroise.grau@epfl.ch, "Modern Times", 21/02/12, 2
josselin.vallee@epfl.ch, "Modern Times", 21/03/07, 4
perseas.charoud-got@epfl.ch, "Casablanca", 21/04/07, 4
romain.choukroun@epfl.ch, "Taxi Driver", 21/04/14, 2
matthieu.devaux@epfl.ch, "Chinatown", 21/05/00, 4
jeremie.mayor@epfl.ch, "On the Waterfront", 21/05/01, 4
nicolas.ritter@epfl.ch, "Schindler's List", 21/06/16, 3
remy.sun@epfl.ch, "Rear Window", 21/07/12, 3
lukas.pestalozzirossi@epfl.ch, "Dr. Strangelove or: How I Learned to Stop Worrying and Love the Bomb", 21/07/16, 5
clement.launay@epfl.ch, "Paths of Glory", 21/08/07, 4
martin.weber@epfl.ch, "Sunset Blvd.", 21/08/13, 5
maxime.coriou@epfl.ch, "Ikiru", 21/08/16, 1
philipp.chervet@epfl.ch, "Schindler's List", 21/09/03, 2
nicolas.ritter@epfl.ch, "Chinatown", 21/09/06, 1
basile.bruneau@epfl.ch, "The Dark Knight", 21/09/11, 2
andre.baptistaaguas@epfl.ch, "The Wages of Fear", 21/11/11, 5
teo.stocco@epfl.ch, "Once Upon a Time in the West", 21/11/14, 5
matthieu.devaux@epfl.ch, "The Godfather: Part II", 21/12/00, 5
alain.chevalley@epfl.ch, "Sunrise", 21/12/01, 2
andre.baptistaaguas@epfl.ch, "The Godfather", 21/12/04, 5
robin.genolet@epfl.ch, "The Good, the Bad and the Ugly", 21/12/14, 2
vincent.ballet@epfl.ch, "Pulp Fiction", 22/01/02, 2
radu.cotofrei@epfl.ch, "Taxi Driver", 22/01/08, 1
benoit.favreau@epfl.ch, "Seven Samurai", 22/01/12, 4
nils.bonfils@epfl.ch, "Sunset Blvd.", 22/01/15, 5
fahd.zargelaioun@epfl.ch, "Once Upon a Time in the West", 22/02/04, 4
pawel.guzewicz@epfl.ch, "Double Indemnity", 22/02/07, 5
anh.khau@epfl.ch, "Fanny and Alexander", 22/03/01, 4
nicolas.reich@epfl.ch, "The Shawshank Redemption", 22/04/03, 1
yoann.ponti@epfl.ch, "On the Waterfront", 22/04/05, 5
alain.milliet@epfl.ch, "Fanny and Alexander", 22/05/01, 1
alexis.cartier@epfl.ch, "Singin' in the Rain", 22/06/00, 1
raphael.steinmann@epfl.ch, "Rear Window", 22/06/10, 4
weiyu.zhang@epfl.ch, "Modern Times", 22/06/14, 5
nils.bonfils@epfl.ch, "Psycho", 22/07/01, 2
valerian.follonier@epfl.ch, "Citizen Kane", 22/07/09, 3
francisco.girbaleiras@epfl.ch, "The Dark Knight", 22/07/16, 2
besma.elketroussi@epfl.ch, "The Godfather: Part II", 22/08/06, 3
dario.pavllo@epfl.ch, "Taxi Driver", 22/08/07, 2
hugues.saltini@epfl.ch, "Ikiru", 22/11/07, 5
michael.heiniger@epfl.ch, "Once Upon a Time in the West", 22/11/10, 2
nicolas.ritter@epfl.ch, "The Third Man", 22/11/10, 1
boris.flueckigersaltarin@epfl.ch, "The 400 Blows", 22/12/11, 1
alexandre.connat@epfl.ch, "Rashomon", 23/02/05, 1
danny.rodriguesalves@epfl.ch, "Tokyo Story", 23/02/12, 5
marco.zoveralli@epfl.ch, "It's a Wonderful Life", 23/03/09, 5
yange.fang@epfl.ch, "Raging Bull", 23/03/14, 4
leonardo.wirz@epfl.ch, "Double Indemnity", 23/03/15, 2
manuroop.kondepudi@epfl.ch, "Lawrence of Arabia", 23/04/02, 4
diego.iriartesainz@epfl.ch, "Paths of Glory", 23/04/08, 1
ireneu.pla@epfl.ch, "Pulp Fiction", 23/04/09, 5
firas.benothman@epfl.ch, "The Shawshank Redemption", 23/04/15, 3
xavier.willemin@epfl.ch, "Metropolis", 23/05/03, 3
perseas.charoud-got@epfl.ch, "Raging Bull", 23/06/03, 1
mohammad.yaghini@epfl.ch, "Star Wars: Episode IV - A New Hope", 23/07/08, 3
lois.huguenin-dumittan@epfl.ch, "Raiders of the Lost Ark", 23/08/09, 2
manuroop.kondepudi@epfl.ch, "The Godfather", 23/08/15, 3
mathieu.clavel@epfl.ch, "It's a Wonderful Life", 23/10/08, 4
timothee.lottaz@epfl.ch, "Double Indemnity", 23/10/15, 2
weiyu.zhang@epfl.ch, "Seven Samurai", 23/11/09, 4
laurence.dure@epfl.ch, "City Lights", 23/12/02, 1
raphael.steinmann@epfl.ch, "Lawrence of Arabia", 23/12/15, 1
lkham.nyambuu@epfl.ch, "Modern Times", 23/12/15, 2
matthias.leroy@epfl.ch, "The 400 Blows", 24/01/01, 3
ozrenko.dragic@epfl.ch, "Singin' in the Rain", 24/01/13, 5
marta.kuziora@epfl.ch, "Rashomon", 24/03/03, 5
pablo.lorenceau@epfl.ch, "2001: A Space Odyssey", 24/04/14, 4
ines.bahej@epfl.ch, "North by Northwest", 24/05/01, 3
boris.flueckigersaltarin@epfl.ch, "Chinatown", 24/05/06, 4
linus.gasser@epfl.ch, "Fanny and Alexander", 24/05/08, 4
georgia.fragkouli@epfl.ch, "Fanny and Alexander", 24/05/12, 4
kirtan.padh@epfl.ch, "Once Upon a Time in the West", 24/06/03, 5
seth.vanderwilt@epfl.ch, "12 Angry Men", 24/06/03, 5
kirtan.padh@epfl.ch, "All About Eve", 24/06/07, 4
andreas.yazdani@epfl.ch, "Citizen Kane", 24/07/00, 2
remy.sun@epfl.ch, "Ikiru", 24/07/01, 5
niccolo.sacchi@epfl.ch, "Chinatown", 24/10/02, 4
olga.popovych@epfl.ch, "The 400 Blows", 24/12/09, 1
mattia.martinelli@epfl.ch, "Bicycle Thieves", 25/01/03, 3
maxime.coriou@epfl.ch, "Bicycle Thieves", 25/01/07, 1
raphael.steinmann@epfl.ch, "All About Eve", 25/01/12, 3
ivanbenjamin.baeriswyl@epfl.ch, "Lawrence of Arabia", 25/02/14, 2
lucas.pires@epfl.ch, "Sunrise", 25/03/10, 1
nicolas.roussel@epfl.ch, "Double Indemnity", 25/03/14, 1
arthur.villard@epfl.ch, "The Dark Knight", 25/03/16, 4
john.stephan@epfl.ch, "Casablanca", 25/04/00, 5
dalmir.hasic@epfl.ch, "Singin' in the Rain", 25/04/02, 2
john.stephan@epfl.ch, "Goodfellas", 25/04/04, 2
rodrigo.pena@epfl.ch, "Lawrence of Arabia", 25/04/16, 4
aimee.montero@epfl.ch, "Star Wars: Episode V - The Empire Strikes Back", 25/05/12, 1
jeremie.mayor@epfl.ch, "Apocalypse Now", 25/05/12, 5
Fengda.Sun@unil.ch, "North by Northwest", 25/06/05, 2
maxime.rutag@epfl.ch, "Bicycle Thieves", 25/06/08, 1
anouk.allenspach@epfl.ch, "Metropolis", 25/06/13, 5
rodrigo.pena@epfl.ch, "Raging Bull", 25/06/13, 4
anouk.allenspach@epfl.ch, "The Godfather", 25/07/02, 4
berkay.inan@epfl.ch, "The 400 Blows", 25/07/02, 3
matthias.leroy@epfl.ch, "Raging Bull", 25/07/13, 2
nicolas.reich@epfl.ch, "Paths of Glory", 25/07/13, 4
riyadh.alnasser@epfl.ch, "Bicycle Thieves", 25/07/14, 4
valerian.follonier@epfl.ch, "North by Northwest", 25/08/01, 4
valentin.vasiliu@epfl.ch, "Lawrence of Arabia", 25/08/11, 3
manuroop.kondepudi@epfl.ch, "The Shawshank Redemption", 25/08/16, 1
niccolo.sacchi@epfl.ch, "Rashomon", 25/09/08, 4
ines.bahej@epfl.ch, "The Shawshank Redemption", 25/10/06, 5
sami.perrin@epfl.ch, "Metropolis", 25/10/08, 3
vincent.ballet@epfl.ch, "Seven Samurai", 25/10/09, 5
riccardo.succa@epfl.ch, "Star Wars: Episode V - The Empire Strikes Back", 25/11/03, 1
adrian.pace@epfl.ch, "City Lights", 25/11/14, 2
christophe.tafani-dereeper@epfl.ch, "Double Indemnity", 25/12/00, 2
charles.gallay@epfl.ch, "The Wages of Fear", 25/12/05, 2
sina.fakheri@epfl.ch, "Spirited Away", 25/12/14, 5
cristina.basescu@epfl.ch, "The Godfather: Part II", 26/01/03, 5
vincent.loup@epfl.ch, "Singin' in the Rain", 26/01/05, 5
ludovic.barman@epfl.ch, "12 Angry Men", 26/01/08, 2
leonardo.wirz@epfl.ch, "Dr. Strangelove or: How I Learned to Stop Worrying and Love the Bomb", 26/01/08, 2
ambroise.grau@epfl.ch, "North by Northwest", 26/01/08, 4
nicolas.ritter@epfl.ch, "Raiders of the Lost Ark", 26/01/16, 1
matthieu.devaux@epfl.ch, "Rashomon", 26/02/04, 2
danny.rodriguesalves@epfl.ch, "Star Wars: Episode IV - A New Hope", 26/02/11, 5
firas.benothman@epfl.ch, "Dr. Strangelove or: How I Learned to Stop Worrying and Love the Bomb", 26/02/15, 3
benoit.cretegny@epfl.ch, "The Godfather", 26/02/15, 2
lukas.pestalozzirossi@epfl.ch, "Chinatown", 26/02/16, 1
ozrenko.dragic@epfl.ch, "Vertigo", 26/03/01, 2
pawel.guzewicz@epfl.ch, "The Night of the Hunter", 26/03/01, 3
artem.shevchenko@epfl.ch, "The Third Man", 26/03/02, 5
, "The Dark Knight", 26/03/02, 2
sylvain.beaud@epfl.ch, "Ikiru", 26/03/04, 5
alexander.holloway@epfl.ch, "City Lights", 26/04/03, 1
alain.chevalley@epfl.ch, "The Night of the Hunter", 26/04/15, 3
remy.sun@epfl.ch, "The Dark Knight", 26/04/16, 4
tasho.kjosev@epfl.ch, "Citizen Kane", 26/05/03, 3
ekaterina.volkovich@epfl.ch, "The Dark Knight", 26/05/07, 2
alain.chevalley@epfl.ch, "Schindler's List", 26/05/09, 1
dimitrios.sarigiannis@epfl.ch, "Metropolis", 26/05/09, 3
aimee.montero@epfl.ch, "Casablanca", 26/05/11, 4
ozrenko.dragic@epfl.ch, "The Night of the Hunter", 26/05/12, 3
riyadh.alnasser@epfl.ch, "It's a Wonderful Life", 26/06/02, 4
sandra.djambazovska@epfl.ch, "Sunset Blvd.", 26/07/00, 4
simon.narduzzi@epfl.ch, "On the Waterfront", 26/07/06, 4
cindy.khawand@epfl.ch, "Citizen Kane", 26/07/16, 1
sylvain.beaud@epfl.ch, "Metropolis", 26/08/04, 5
cristina.menghini@epfl.ch, "Casablanca", 26/08/08, 1
damien.doy@epfl.ch, "The Dark Knight", 26/08/15, 4
ilyes.jarrar@epfl.ch, "Spirited Away", 26/09/07, 5
lois.huguenin-dumittan@epfl.ch, "12 Angry Men", 26/10/03, 1
kristian.aurlien@epfl.ch, "Sunset Blvd.", 26/10/13, 5
emily.hentgen@epfl.ch, "Fanny and Alexander", 26/10/15, 1
maxime.coriou@epfl.ch, "Once Upon a Time in the West", 26/11/04, 3
alain.chevalley@epfl.ch, "Star Wars: Episode IV - A New Hope", 26/11/09, 1
philipp.chervet@epfl.ch, "Seven Samurai", 26/11/10, 1
clement.launay@epfl.ch, "Double Indemnity", 26/11/11, 4
hugues.saltini@epfl.ch, "The Dark Knight", 26/11/15, 3
ciprian.tomoiaga@epfl.ch, "Lawrence of Arabia", 26/12/04, 5
besma.elketroussi@epfl.ch, "Apocalypse Now", 26/12/11, 1
francisco.girbaleiras@epfl.ch, "Sunrise", 27/01/04, 5
hector.parmantier@epfl.ch, "The Godfather", 27/01/07, 5
niccolo.sacchi@epfl.ch, "Ikiru", 27/01/11, 2
alfonso.peterssen@epfl.ch, "Dr. Strangelove or: How I Learned to Stop Worrying and Love the Bomb", 27/02/05, 1
gaylor.bosson@epfl.ch, "Goodfellas", 27/02/09, 5
yannick.schaeffer@epfl.ch, "City Lights", 27/02/14, 2
raphael.steinmann@epfl.ch, "Bicycle Thieves", 27/03/05, 2
jacqueline.eriksson@epfl.ch, "Casablanca", 27/03/06, 2
berkay.inan@epfl.ch, "M", 27/03/07, 2
riccardo.succa@epfl.ch, "Modern Times", 27/04/15, 1
patrik.fraj-sladoljev@epfl.ch, "Raging Bull", 27/05/06, 2
benjamin.schloesing@epfl.ch, "The Shawshank Redemption", 27/05/08, 4
marius.rosset@epfl.ch, "Lawrence of Arabia", 27/06/10, 4
lukas.pestalozzirossi@epfl.ch, "Bicycle Thieves", 27/06/16, 5
matthias.leroy@epfl.ch, "Vertigo", 27/07/01, 2
benoit.cretegny@epfl.ch, "North by Northwest", 27/07/08, 4
mirko.boelsterli@epfl.ch, "Star Wars: Episode V - The Empire Strikes Back", 27/08/04, 2
lucas.pires@epfl.ch, "Bicycle Thieves", 27/08/04, 4
vincent.loup@epfl.ch, "Paths of Glory", 27/08/07, 1
radu.cotofrei@epfl.ch, "Star Wars: Episode V - The Empire Strikes Back", 27/08/16, 4
alexander.holloway@epfl.ch, "Chinatown", 27/09/05, 5
weiyu.zhang@epfl.ch, "Sunrise", 27/10/10, 4
ireneu.pla@epfl.ch, "Star Wars: Episode V - The Empire Strikes Back", 27/10/15, 3
ciprian.tomoiaga@epfl.ch, "Paths of Glory", 27/11/01, 5
justinien.bouron@epfl.ch, "Vertigo", 27/11/02, 2
noora.tanska@epfl.ch, "Raiders of the Lost Ark", 27/12/01, 5
nils.bonfils@epfl.ch, "Singin' in the Rain", 27/12/07, 3
vincent.petri@epfl.ch, "Singin' in the Rain", 28/01/14, 3
hugues.saltini@epfl.ch, "Dr. Strangelove or: How I Learned to Stop Worrying and Love the Bomb", 28/02/05, 5
mateusz.paluchowski@epfl.ch, "The Third Man", 28/02/06, 4
benjamin.schloesing@epfl.ch, "Apocalypse Now", 28/03/05, 2
jeremie.mayor@epfl.ch, "Singin' in the Rain", 28/03/14, 5
brandon.lesann@epfl.ch, "Double Indemnity", 28/04/06, 3
teo.stocco@epfl.ch, "One Flew Over the Cuckoo's Nest", 28/05/05, 3
vincent.ballet@epfl.ch, "The Godfather", 28/05/09, 5
nicolas.roussel@epfl.ch, "Once Upon a Time in the West", 28/05/11, 2
dimitrios.sarigiannis@epfl.ch, "Fanny and Alexander", 28/06/08, 5
marie-jeanne.lagarde@epfl.ch, "Chinatown", 28/06/09, 2
, "Spirited Away", 28/07/07, 3
robert.marver@epfl.ch, "North by Northwest", 28/08/14, 4
robert.marver@epfl.ch, "The Godfather", 28/08/14, 1
josselin.vallee@epfl.ch, "Dr. Strangelove or: How I Learned to Stop Worrying and Love the Bomb", 28/09/08, 4
diego.iriartesainz@epfl.ch, "Double Indemnity", 28/10/11, 3
jun.chen@epfl.ch, "Sunrise", 28/10/15, 4
handan.kilinc@epfl.ch, "Star Wars: Episode IV - A New Hope", 28/11/03, 5
mohammad.yaghini@epfl.ch, "Sunrise", 28/12/02, 2
patrik.fraj-sladoljev@epfl.ch, "Vertigo", 28/12/11, 2
patrik.fraj-sladoljev@epfl.ch, "Once Upon a Time in the West", 29/01/15, 4
noora.tanska@epfl.ch, "Lawrence of Arabia", 29/02/04, 1
pierre-antoine.desplaces@epfl.ch, "North by Northwest", 29/03/11, 4
daniel.guggenheim@epfl.ch, "Psycho", 29/03/13, 4
ekaterina.volkovich@epfl.ch, "The Wages of Fear", 29/03/14, 5
sami.perrin@epfl.ch, "12 Angry Men", 29/04/12, 5
justinien.bouron@epfl.ch, "M", 29/04/14, 2
nicolas.plancherel@epfl.ch, "The Godfather", 29/04/15, 3
nicolas.roussel@epfl.ch, "Chinatown", 29/05/07, 5
adrian.pace@epfl.ch, "Modern Times", 29/06/00, 4
yange.fang@epfl.ch, "North by Northwest", 29/06/01, 3
daniel.guggenheim@epfl.ch, "Tokyo Story", 29/06/04, 3
nicolas.reich@epfl.ch, "Goodfellas", 29/06/06, 5
jean-thomas.furrer@epfl.ch, "Fanny and Alexander", 29/06/12, 5
kirtan.padh@epfl.ch, "Taxi Driver", 29/07/12, 4
cedric.cook@epfl.ch, "The Good, the Bad and the Ugly", 29/08/12, 4
yoann.ponti@epfl.ch, "Taxi Driver", 29/09/01, 3
handan.kilinc@epfl.ch, "City Lights", 29/09/09, 5
nicolas.ritter@epfl.ch, "Metropolis", 29/09/10, 4
sami.perrin@epfl.ch, "The Wages of Fear", 29/10/02, 3
raphael.dunant@epfl.ch, "Raiders of the Lost Ark", 29/10/04, 3
diego.iriartesainz@epfl.ch, "It's a Wonderful Life", 29/11/06, 4
alexander.holloway@epfl.ch, "Apocalypse Now", 29/12/05, 4
vikalp.kamdar@epfl.ch, "Fanny and Alexander", 29/12/08, 3
jean-thomas.furrer@epfl.ch, "Lawrence of Arabia", 29/12/15, 3
valerian.follonier@epfl.ch, "Pulp Fiction", 30/01/01, 5
cedric.cook@epfl.ch, "The Dark Knight", 30/01/02, 3
mirko.boelsterli@epfl.ch, "The Third Man", 30/01/09, 5
artem.shevchenko@epfl.ch, "Singin' in the Rain", 30/01/10, 2
jean.raisaro@epfl.ch, "One Flew Over the Cuckoo's Nest", 30/01/15, 5
tasho.kjosev@epfl.ch, "Raging Bull", 30/01/15, 1
valentin.vasiliu@epfl.ch, "One Flew Over the Cuckoo's Nest", 30/01/16, 2
georgia.fragkouli@epfl.ch, "Schindler's List", 30/03/01, 5
nicolas.plancherel@epfl.ch, "Vertigo", 30/03/07, 3
anh.khau@epfl.ch, "Seven Samurai", 30/03/07, 5
mirko.boelsterli@epfl.ch, "Star Wars: Episode IV - A New Hope", 30/03/15, 5
noora.tanska@epfl.ch, "Tokyo Story", 30/04/15, 3
xavier.willemin@epfl.ch, "Raging Bull", 30/05/11, 1
alexis.cartier@epfl.ch, "Rear Window", 30/05/11, 1
philippe.oechslin@epfl.ch, "Paths of Glory", 30/05/12, 3
rodrigo.pena@epfl.ch, "North by Northwest", 30/06/14, 5
dalmir.hasic@epfl.ch, "City Lights", 30/06/15, 3
nikita.lazarev@epfl.ch, "The Good, the Bad and the Ugly", 30/06/16, 3
philipp.chervet@epfl.ch, "Rear Window", 30/07/00, 2
lkham.nyambuu@epfl.ch, "2001: A Space Odyssey", 30/07/14, 1
cristina.basescu@epfl.ch, "Tokyo Story", 30/08/01, 5
jean.raisaro@epfl.ch, "Star Wars: Episode V - The Empire Strikes Back", 30/08/02, 3
lucas.pires@epfl.ch, "Star Wars: Episode V - The Empire Strikes Back", 30/09/02, 2
olga.popovych@epfl.ch, "Star Wars: Episode IV - A New Hope", 30/10/01, 2
yoann.ponti@epfl.ch, "One Flew Over the Cuckoo's Nest", 30/10/03, 4
justinien.bouron@epfl.ch, "One Flew Over the Cuckoo's Nest", 30/10/09, 4
martin.weber@epfl.ch, "The Third Man", 30/10/15, 2
christophe.tafani-dereeper@epfl.ch, "Seven Samurai", 30/11/03, 3
alexander.holloway@epfl.ch, "One Flew Over the Cuckoo's Nest", 30/11/03, 5
noora.tanska@epfl.ch, "Metropolis", 30/12/09, 5
danny.rodriguesalves@epfl.ch, "The Wages of Fear", 31/01/00, 1
bojan.petrovski@epfl.ch, "The Dark Knight", 31/01/04, 4
clement.launay@epfl.ch, "Dr. Strangelove or: How I Learned to Stop Worrying and Love the Bomb", 31/05/03, 1
mattia.martinelli@epfl.ch, "The Godfather: Part II", 31/05/05, 4
benjamin.schloesing@epfl.ch, "Pulp Fiction", 31/07/03, 5
michael.heiniger@epfl.ch, "City Lights", 31/07/12, 4
hector.parmantier@epfl.ch, "The Third Man", 31/08/05, 1
Fengda.Sun@unil.ch, "Apocalypse Now", 31/08/15, 2
yamane.elzein@epfl.ch, "It's a Wonderful Life", 31/10/02, 3
riccardo.succa@epfl.ch, "Tokyo Story", 31/10/12, 1
jun.chen@epfl.ch, "Double Indemnity", 31/10/13, 5
emanuele.bugliarello@epfl.ch, "Singin' in the Rain", 31/12/01, 3
ilyes.jarrar@epfl.ch, "The 400 Blows", 31/12/05, 2
mateusz.paluchowski@epfl.ch, "Metropolis", 31/12/09, 2
olga.popovych@epfl.ch, "Tokyo Story", 31/12/11, 1